<?xml version="1.0" encoding="utf-8"?>
<!-- Generated by IcoMoon.io -->
<!DOCTYPE svg PUBLIC "-//W3C//DTD SVG 1.1//EN" "http://www.w3.org/Graphics/SVG/1.1/DTD/svg11.dtd">
<svg version="1.1" xmlns="http://www.w3.org/2000/svg" xmlns:xlink="http://www.w3.org/1999/xlink" width="24" height="24" viewBox="0 0 24 24">
<g>
</g>
	<path d="M12 24c-6.627 0-12-5.372-12-12s5.373-12 12-12c6.628 0 12 5.372 12 12s-5.372 12-12 12zM12 3c-4.97 0-9 4.030-9 9s4.030 9 9 9c4.971 0 9-4.030 9-9s-4.029-9-9-9zM13.5 18h-3v-4.5h-4.5v-3h4.5v-4.5h3v4.5h4.5v3h-4.5v4.5z" fill="#3c3c3c" />
</svg>
